v 0.0 1.0 0.0 
v -1.0 -1.0 1.0 
v 1.0 -1.0 1.0 
v 0.0 1.0 0.0 
v -1.0 -1.0 -1.0 
v -1.0 -1.0 1.0 
v 0.0 1.0 0.0 
v -1.0 -1.0 -1.0 
v 1.0 -1.0 -1.0 
v 0.0 1.0 0.0 
v 1.0 -1.0 1.0 
v 1.0 -1.0 -1.0
vn 0.0 0.0 1.0
vn -1.0 0.0 0.0
vn 0.0 0.0 -1.0
vn 1.0 1.0 0.0
f 0/0/0 1/0/0 2/0/0
f 3/0/1 4/0/1 5/0/1
f 6/0/2 7/0/2 8/0/2
f 9/0/3 10/0/3 11/0/3